…
**str() and pipes**

- _Note: We will review pipes in more detail in the Tidyverse and Pipes section below, but for now let's review the utility of using pipes with the `str()` function._




- Say we wanted to subset the dataframe and only include private schools and a few columns/variables.



```r
df_school %>% select(name, state_code, school_type) %>% filter(school_type == "private")
#> # A tibble: 3,822 x 3
#>    name                                 state_code school_type
#>    <chr>                                <chr>      <chr>      
#>  1 CATHOLIC SCHOOLS OF FAIRBANKS        AK         private    
#>  2 ANCHORAGE CHRISTIAN SCHOOLS          AK         private    
#>  3 GRACE CHRISTIAN SCHOOL               AK         private    
#>  4 IMMACULATE CONCEPTION SCHOOL         AK         private    
#>  5 HOLY ROSARY ACADEMY                  AK         private    
#>  6 LUMEN CHRISTI HIGH SCHOOL            AK         private    
#>  7 JOHN CARROLL CATHOLIC HIGH SCHOOL    AL         private    
#>  8 MOBILE CHRISTIAN SCHOOL              AL         private    
#>  9 NORTHSIDE METHODIST CHURCH & ACADEMY AL         private    
#> 10 WESTMINSTER SCHOOL AT OAK MOUNTAIN   AL         private    
#> # … with 3,812 more rows
```
…
## Data in R

**Loading R data**  

- It is common for packages to come with data. For example the  `dplyr` package includes the `starwars` data set (as a tibble) which comes from the [Star Wars API](https://swapi.dev/).  
- You can load a data set by typing it's name (ex. `starwars`)




```r
#dplyr::starwars
starwars
#> # A tibble: 87 x 14
#>    name               height  mass hair_color    skin_color  eye_color birth_year sex    gender    homeworld species films     vehicles  starships
#>    <chr>               <int> <dbl> <chr>         <chr>       <chr>          <dbl> <chr>  <chr>     <chr>     <chr>   <list>    <list>    <list>   
#>  1 Luke Skywalker        172    77 blond         fair        blue            19   male   masculine Tatooine  Human   <chr [5]> <chr [2]> <chr [2]>
#>  2 C-3PO                 167    75 <NA>          gold        yellow         112   none   masculine Tatooine  Droid   <chr [6]> <chr [0]> <chr [0]>
#>  3 R2-D2                  96    32 <NA>          white, blue red             33   none   masculine Naboo     Droid   <chr [7]> <chr [0]> <chr [0]>
#>  4 Darth Vader           202   136 none          white       yellow          41.9 male   masculine Tatooine  Human   <chr [4]> <chr [0]> <chr [1]>
#>  5 Leia Organa           150    49 brown         light       brown           19   female feminine  Alderaan  Human   <chr [5]> <chr [1]> <chr [0]>
#>  6 Owen Lars             178   120 brown, grey   light       blue            52   male   masculine Tatooine  Human   <chr [3]> <chr [0]> <chr [0]>
#>  7 Beru Whitesun lars    165    75 brown         light       blue            47   female feminine  Tatooine  Human   <chr [3]> <chr [0]> <chr [0]>
#>  8 R5-D4                  97    32 <NA>          white, red  red             NA   none   masculine Tatooine  Droid   <chr [1]> <chr [0]> <chr [0]>
#>  9 Biggs Darklighter     183    84 black         light       brown           24   male   masculine Tatooine  Human   <chr [1]> <chr [0]> <chr [1]>
#> 10 Obi-Wan Kenobi        182    77 auburn, white fair        blue-gray       57   male   masculine Stewjon   Human   <chr [6]> <chr [1]> <chr [5]>
#> # … with 77 more rows
```
…
